…
```r
dailysteps<-work %>% group_by(date) %>% summarize(total_steps=sum(steps, na.rm=TRUE))
```

```
## `summarise()` ungrouping output (override with `.groups` argument)
```

```r
dailysteps
```

```
## # A tibble: 61 x 2
##    date       total_steps
##    <date>           <int>
##  1 2012-10-01           0
##  2 2012-10-02         126
##  3 2012-10-03       11352
##  4 2012-10-04       12116
##  5 2012-10-05       13294
##  6 2012-10-06       15420
##  7 2012-10-07       11015
##  8 2012-10-08           0
##  9 2012-10-09       12811
## 10 2012-10-10        9900
## # … with 51 more rows
```
…
```r
dailysmm<- work %>% group_by(date) %>% summarize(stepmean= mean(steps, na.rm=TRUE), stepmedian=median(steps, ma.rm=TRUE), dailysteps=sum(steps, na.rm=TRUE))
```

```
## `summarise()` ungrouping output (override with `.groups` argument)
```

```r
dailysmm
```

```
## # A tibble: 61 x 4
##    date       stepmean stepmedian dailysteps
##    <date>        <dbl>      <dbl>      <int>
##  1 2012-10-01  NaN             NA          0
##  2 2012-10-02    0.438          0        126
##  3 2012-10-03   39.4            0      11352
##  4 2012-10-04   42.1            0      12116
##  5 2012-10-05   46.2            0      13294
##  6 2012-10-06   53.5            0      15420
##  7 2012-10-07   38.2            0      11015
##  8 2012-10-08  NaN             NA          0
##  9 2012-10-09   44.5            0      12811
## 10 2012-10-10   34.4            0       9900
## # … with 51 more rows
```
…
```r
daily_active<- work %>% group_by(interval) %>% summarize(Average_Steps=mean(steps, na.rm=TRUE))
```

```
## `summarise()` ungrouping output (override with `.groups` argument)
```

```r
daily_active
```

```
## # A tibble: 288 x 2
##    interval Average_Steps
##       <int>         <dbl>
##  1        0        1.72  
##  2        5        0.340 
##  3       10        0.132 
##  4       15        0.151 
##  5       20        0.0755
##  6       25        2.09  
##  7       30        0.528 
##  8       35        0.868 
##  9       40        0     
## 10       45        1.47  
## # … with 278 more rows
```
…
```r
full_mean_median<- fulldata %>% group_by(date) %>% summarize( Mean= mean(steps), Median=median(steps), Total=sum(steps))
```

```
## `summarise()` ungrouping output (override with `.groups` argument)
```

```r
full_mean_median
```

```
## # A tibble: 61 x 4
##    date         Mean Median  Total
##    <date>      <dbl>  <dbl>  <dbl>
##  1 2012-10-01 37.4     34.1 10766.
##  2 2012-10-02  0.438    0     126 
##  3 2012-10-03 39.4      0   11352 
##  4 2012-10-04 42.1      0   12116 
##  5 2012-10-05 46.2      0   13294 
##  6 2012-10-06 53.5      0   15420 
##  7 2012-10-07 38.2      0   11015 
##  8 2012-10-08 37.4     34.1 10766.
##  9 2012-10-09 44.5      0   12811 
## 10 2012-10-10 34.4      0    9900 
## # … with 51 more rows
```
These are the calculated means and medians of the steps taken per day with our full dataset. Let's see how this differs from our data set with missing values


```r
dailysmm
```

```
## # A tibble: 61 x 4
##    date       stepmean stepmedian dailysteps
##    <date>        <dbl>      <dbl>      <int>
##  1 2012-10-01  NaN             NA          0
##  2 2012-10-02    0.438          0        126
##  3 2012-10-03   39.4            0      11352
##  4 2012-10-04   42.1            0      12116
##  5 2012-10-05   46.2            0      13294
##  6 2012-10-06   53.5            0      15420
##  7 2012-10-07   38.2            0      11015
##  8 2012-10-08  NaN             NA          0
##  9 2012-10-09   44.5            0      12811
## 10 2012-10-10   34.4            0       9900
## # … with 51 more rows
```

```r
full_mean_median
```

```
## # A tibble: 61 x 4
##    date         Mean Median  Total
##    <date>      <dbl>  <dbl>  <dbl>
##  1 2012-10-01 37.4     34.1 10766.
##  2 2012-10-02  0.438    0     126 
##  3 2012-10-03 39.4      0   11352 
##  4 2012-10-04 42.1      0   12116 
##  5 2012-10-05 46.2      0   13294 
##  6 2012-10-06 53.5      0   15420 
##  7 2012-10-07 38.2      0   11015 
##  8 2012-10-08 37.4     34.1 10766.
##  9 2012-10-09 44.5      0   12811 
## 10 2012-10-10 34.4      0    9900 
## # … with 51 more rows
```
…
```r
ww<- fulldata %>% group_by(day_week, interval) %>% summarize(Step_average=mean(steps))
```

```
## `summarise()` regrouping output by 'day_week' (override with `.groups` argument)
```

```r
ww
```

```
## # A tibble: 576 x 3
## # Groups:   day_week [2]
##    day_week interval Step_average
##    <fct>       <int>        <dbl>
##  1 Weekday         0       2.25  
##  2 Weekday         5       0.445 
##  3 Weekday        10       0.173 
##  4 Weekday        15       0.198 
##  5 Weekday        20       0.0990
##  6 Weekday        25       1.59  
##  7 Weekday        30       0.693 
##  8 Weekday        35       1.14  
##  9 Weekday        40       0     
## 10 Weekday        45       1.80  
## # … with 566 more rows
```
…
